module gitlab.com/xorium/gengrpc

go 1.17

require (
	github.com/bgentry/go-netrc v0.0.0-20140422174119-9fd32a8b3d3d // indirect
	github.com/bufbuild/buf v0.56.0 // indirect
	github.com/gofrs/flock v0.8.1 // indirect
	github.com/gofrs/uuid v4.0.0+incompatible // indirect
	github.com/golang/groupcache v0.0.0-20200121045136-8c9f03a8e57e // indirect
	github.com/golang/protobuf v1.5.2 // indirect
	github.com/inconshreveable/mousetrap v1.0.0 // indirect
	github.com/jhump/protoreflect v1.9.1-0.20210817181203-db1a327a393e // indirect
	github.com/klauspost/compress v1.13.5 // indirect
	github.com/klauspost/pgzip v1.2.5 // indirect
	github.com/pkg/profile v1.6.0 // indirect
	github.com/spf13/cobra v1.2.1 // indirect
	github.com/spf13/pflag v1.0.5 // indirect
	github.com/twitchtv/twirp v8.1.0+incompatible // indirect
	go.opencensus.io v0.23.0 // indirect
	go.uber.org/atomic v1.7.0 // indirect
	go.uber.org/multierr v1.7.0 // indirect
	go.uber.org/zap v1.19.0 // indirect
	golang.org/x/net v0.0.0-20210907225631-ff17edfbf26d // indirect
	golang.org/x/sync v0.0.0-20210220032951-036812b2e83c // indirect
	golang.org/x/sys v0.0.0-20210908143011-c212e7322662 // indirect
	golang.org/x/term v0.0.0-20210615171337-6886f2dfbf5b // indirect
	golang.org/x/text v0.3.7 // indirect
	google.golang.org/genproto v0.0.0-20210903162649-d08c68adba83 // indirect
	google.golang.org/grpc v1.41.0-dev.0.20210907181116-2f3355d2244e // indirect
	google.golang.org/protobuf v1.27.1 // indirect
	gopkg.in/yaml.v3 v3.0.0-20210107192922-496545a6307b // indirect
)
